multipliers/clk_rst_multiplier/waves.vcd
$date
     Apr 14, 2023       15:14:08
$end

$version
              SystemC 2.3.0_pub_rev_20111121-OSCI --- Mar 15 2023 10:51:31
$end

$timescale
     1 ps
$end

$scope module SystemC $end
$var wire    1  aaa  clk       $end
$var wire    1  aab  rst       $end
$var wire   16  aac  a [15:0]  $end
$var wire   16  aad  b [15:0]  $end
$var wire   32  aae  out [31:0]  $end
$upscope $end
$enddefinitions  $end

$comment
All initial values are dumped below at time 0 sec = 0 timescale units.
$end

$dumpvars
0aaa
1aab
b0 aac
b0 aad
b0 aae
$end

#5000
0aab

#10000
1aaa
b1110000000110101 aac
b1011011100011110 aad
b110000010001011010100100110110 aae

#15000
0aaa

#20000
1aaa
b1001010100011001 aac
b1010001101111100 aad
b10100101010101010001100011100 aae

#25000
0aaa

#30000
1aaa
b10001001010111 aac
b1000101100101110 aad
b1011111111110100010100010 aae

#35000
0aaa

#40000
1aaa
b110011110001110 aac
b1111111001110011 aad
b110011001001100110100011001010 aae

#45000
0aaa

#50000
1aaa
b1011100000011 aac
b1000110100111100 aad
b1001100001000101110110100 aae

#55000
0aaa

#60000
1aaa
b1011101010111110 aac
b1001110001000100 aad
b10100100111100110001001111000 aae

#65000
0aaa

#70000
1aaa
b10001000010010 aac
b1001000111000100 aad
b10010111010100011111001000 aae

#75000
0aaa

#80000
1aaa
b1101100011111010 aac
b111111101011001 aad
b1101011111011110111010011101010 aae

#85000
0aaa

#90000
1aaa
b111100000010010 aac
b1011011110011101 aad
b11010000101011000000100001010 aae

