subtractors/f_h_s/waves.vcd
$date
     Apr 05, 2023       12:58:30
$end

$version
              SystemC 2.3.0_pub_rev_20111121-OSCI --- Mar 15 2023 10:51:31
$end

$timescale
     1 ps
$end

$scope module SystemC $end
$var wire    1  aaa  borrow       $end
$var wire    1  aab  diff       $end
$var wire    1  aac  cin       $end
$var wire    1  aad  b       $end
$var wire    1  aae  a       $end
$upscope $end
$enddefinitions  $end

$comment
All initial values are dumped below at time 0 sec = 0 timescale units.
$end

$dumpvars
0aaa
0aab
0aac
0aad
0aae
$end

#10000
1aaa
1aab
1aac

#20000
0aac
1aad

#30000
0aab
1aac

#40000
0aaa
1aab
0aac
0aad
1aae

#50000
0aab
1aac

#60000
0aac
1aad

#70000
1aaa
1aab
1aac

#80000
0aaa
0aab
0aac
0aad
0aae

#90000
1aaa
1aab
1aac

